{
    "sourceFile": "resources/js/app.js",
    "activeCommit": 0,
    "commits": [
        {
            "activePatchIndex": 3,
            "patches": [
                {
                    "date": 1697552887324,
                    "content": "Index: \n===================================================================\n--- \n+++ \n"
                },
                {
                    "date": 1697552910252,
                    "content": "Index: \n===================================================================\n--- \n+++ \n@@ -1,8 +1,8 @@\n import './bootstrap';\n \n import { createApp } from 'vue';\n-import HelloVue from './components/HelloVue.vue';\n+import HelloVue from './components/Hello.vue';\n \n createApp({\n     components: {\n         HelloVue,\n"
                },
                {
                    "date": 1697552983207,
                    "content": "Index: \n===================================================================\n--- \n+++ \n@@ -1,8 +1,8 @@\n import './bootstrap';\n \n import { createApp } from 'vue';\n-import HelloVue from './components/Hello.vue';\n+import HelloVue from './../components/Hello.vue';\n \n createApp({\n     components: {\n         HelloVue,\n"
                },
                {
                    "date": 1697553117244,
                    "content": "Index: \n===================================================================\n--- \n+++ \n@@ -1,7 +1,8 @@\n import './bootstrap';\n \n import { createApp } from 'vue';\n+\n import HelloVue from './../components/Hello.vue';\n \n createApp({\n     components: {\n"
                }
            ],
            "date": 1697552887324,
            "name": "Commit-0",
            "content": "import './bootstrap';\n\nimport { createApp } from 'vue';\nimport HelloVue from './components/HelloVue.vue';\n\ncreateApp({\n    components: {\n        HelloVue,\n    }\n}).mount('#app');\n"
        }
    ]
}