{
    "sourceFile": "resources/js/bootstrap.js",
    "activeCommit": 0,
    "commits": [
        {
            "activePatchIndex": 0,
            "patches": [
                {
                    "date": 1697552888563,
                    "content": "Index: \n===================================================================\n--- \n+++ \n"
                }
            ],
            "date": 1697552888563,
            "name": "Commit-0",
            "content": "import _ from 'lodash';\nwindow._ = _;\n\n/**\n * We'll load the axios HTTP library which allows us to easily issue requests\n * to our Laravel back-end. This library automatically handles sending the\n * CSRF token as a header based on the value of the \"XSRF\" token cookie.\n */\n\nimport axios from 'axios';\nwindow.axios = axios;\n\nwindow.axios.defaults.headers.common['X-Requested-With'] = 'XMLHttpRequest';\n\n/**\n * Echo exposes an expressive API for subscribing to channels and listening\n * for events that are broadcast by Laravel. Echo and event broadcasting\n * allows your team to easily build robust real-time web applications.\n */\n\n// import Echo from 'laravel-echo';\n\n// import Pusher from 'pusher-js';\n// window.Pusher = Pusher;\n\n// window.Echo = new Echo({\n//     broadcaster: 'pusher',\n//     key: import.meta.env.VITE_PUSHER_APP_KEY,\n//     cluster: import.meta.env.VITE_PUSHER_APP_CLUSTER ?? 'mt1',\n//     wsHost: import.meta.env.VITE_PUSHER_HOST ? import.meta.env.VITE_PUSHER_HOST : `ws-${import.meta.env.VITE_PUSHER_APP_CLUSTER}.pusher.com`,\n//     wsPort: import.meta.env.VITE_PUSHER_PORT ?? 80,\n//     wssPort: import.meta.env.VITE_PUSHER_PORT ?? 443,\n//     forceTLS: (import.meta.env.VITE_PUSHER_SCHEME ?? 'https') === 'https',\n//     enabledTransports: ['ws', 'wss'],\n// });\n"
        }
    ]
}