{
    "sourceFile": "package.json",
    "activeCommit": 0,
    "commits": [
        {
            "activePatchIndex": 3,
            "patches": [
                {
                    "date": 1697552762313,
                    "content": "Index: \n===================================================================\n--- \n+++ \n"
                },
                {
                    "date": 1697552779607,
                    "content": "Index: \n===================================================================\n--- \n+++ \n@@ -1,9 +1,14 @@\n {\n     \"private\": true,\n     \"scripts\": {\n-        \"dev\": \"vite\",\n-        \"build\": \"vite build\"\n+        \"dev\": \"npm run development\",\n+        \"development\": \"mix\",\n+        \"watch\": \"mix watch\",\n+        \"watch-poll\": \"mix watch -- --watch-options-poll=1000\",\n+        \"hot\": \"mix watch --hot\",\n+        \"prod\": \"npm run production\",\n+        \"production\": \"mix --production\"\n     },\n     \"devDependencies\": {\n         \"axios\": \"^1.1.2\",\n         \"laravel-vite-plugin\": \"^0.7.2\",\n"
                },
                {
                    "date": 1697552801128,
                    "content": "Index: \n===================================================================\n--- \n+++ \n@@ -10,11 +10,10 @@\n         \"production\": \"mix --production\"\n     },\n     \"devDependencies\": {\n         \"axios\": \"^1.1.2\",\n-        \"laravel-vite-plugin\": \"^0.7.2\",\n+        \"laravel-mix\": \"^6.0.6\",\n         \"lodash\": \"^4.17.19\",\n         \"postcss\": \"^8.1.14\",\n-        \"vite\": \"^4.0.0\",\n         \"vue\": \"^3.3.4\"\n     }\n }\n"
                },
                {
                    "date": 1697553247314,
                    "content": "Index: \n===================================================================\n--- \n+++ \n@@ -13,7 +13,8 @@\n         \"axios\": \"^1.1.2\",\n         \"laravel-mix\": \"^6.0.6\",\n         \"lodash\": \"^4.17.19\",\n         \"postcss\": \"^8.1.14\",\n-        \"vue\": \"^3.3.4\"\n+        \"vue\": \"^3.3.4\",\n+        \"vue-loader\": \"^16.8.3\"\n     }\n }\n"
                }
            ],
            "date": 1697552762313,
            "name": "Commit-0",
            "content": "{\n    \"private\": true,\n    \"scripts\": {\n        \"dev\": \"vite\",\n        \"build\": \"vite build\"\n    },\n    \"devDependencies\": {\n        \"axios\": \"^1.1.2\",\n        \"laravel-vite-plugin\": \"^0.7.2\",\n        \"lodash\": \"^4.17.19\",\n        \"postcss\": \"^8.1.14\",\n        \"vite\": \"^4.0.0\",\n        \"vue\": \"^3.3.4\"\n    }\n}\n"
        }
    ]
}