{
    "sourceFile": "app/Http/Controllers/Controller.php",
    "activeCommit": 0,
    "commits": [
        {
            "activePatchIndex": 0,
            "patches": [
                {
                    "date": 1697597810507,
                    "content": "Index: \n===================================================================\n--- \n+++ \n"
                }
            ],
            "date": 1697597810507,
            "name": "Commit-0",
            "content": "<?php\n\nnamespace App\\Http\\Controllers;\n\nuse Illuminate\\Foundation\\Auth\\Access\\AuthorizesRequests;\nuse Illuminate\\Foundation\\Bus\\DispatchesJobs;\nuse Illuminate\\Foundation\\Validation\\ValidatesRequests;\nuse Illuminate\\Routing\\Controller as BaseController;\n\nclass Controller extends BaseController\n{\n    use AuthorizesRequests, DispatchesJobs, ValidatesRequests;\n}\n"
        }
    ]
}